<?xml version="1.0" encoding="UTF-8"?>
<session version="1.0">
<refactoring comment="Delete resource &apos;Test&apos;" deleteContents="false" description="Delete resource &apos;Test&apos;" element1="/Test" flags="7" id="org.eclipse.ltk.core.refactoring.delete.resources" resources="1" stamp="1447764924367"/>
</session>